<svg width="150" height="20" viewBox="0 0 150 20" fill="none" xmlns="http://www.w3.org/2000/svg">
<path d="M12.2639 0.97168L9.60674 6.08536L6.74516 0.97168H0L6.54076 11.8127V18.9718H12.4683V11.8127L19.0091 0.97168H12.2639Z" fill="#EF16B0"/>
<path d="M36.5871 3.42617C36.1783 2.60798 35.5651 1.99434 34.7475 1.58524C34.1343 1.17615 33.3167 0.767052 32.4991 0.562505C31.6815 0.357958 30.8639 0.15341 30.2507 0.15341C29.0243 -0.0511368 27.3891 -0.0511368 26.1627 0.15341C25.5495 0.15341 24.732 0.357958 23.9144 0.562505C23.0968 0.767052 22.2792 1.17615 21.666 1.58524C21.0528 1.99434 20.4396 2.60798 19.8264 3.42617C19.2132 4.4489 19.0088 5.26709 19.0088 6.28983V13.6535C19.0088 14.8808 19.4176 16.1081 20.0308 16.9263C20.644 17.7445 21.666 18.3581 22.688 18.7672C23.71 19.1763 24.5276 19.3808 25.3451 19.3808C26.1627 19.5854 27.1847 19.5854 28.0023 19.5854C29.0243 19.5854 30.0463 19.5854 30.8639 19.3808C31.8859 19.1763 32.7035 18.9718 33.7255 18.5627C34.7475 18.1536 35.5651 17.5399 36.1783 16.7217C36.7915 15.9035 37.2003 14.8808 37.2003 13.6535V6.28983C37.2003 5.26709 36.9959 4.24436 36.5871 3.42617ZM31.0683 6.28983V13.6535C31.0683 13.8581 31.0683 14.0626 30.8639 14.0626C30.8639 14.0626 30.6595 14.2672 30.4551 14.2672C30.0463 14.4717 29.8419 14.4717 29.4331 14.4717C28.8199 14.4717 27.5935 14.4717 26.7759 14.4717C26.5715 14.6763 26.1627 14.4717 25.7539 14.4717C25.5495 14.4717 25.3451 14.2672 25.3451 14.2672C25.3451 14.2672 25.1408 14.0626 25.1408 13.8581V6.28983C25.1408 5.67619 25.3451 5.67619 25.5495 5.47164C25.9583 5.26709 26.5715 5.06254 28.0023 5.06254C29.4331 5.06254 30.0463 5.26709 30.4551 5.47164C30.8639 5.67619 31.0683 5.88073 31.0683 6.28983Z" fill="#EF16B0"/>
<path d="M51.0995 1.38086V14.0628C51.0995 14.4719 51.0995 14.6764 50.8951 14.6764C50.6907 14.6764 50.2819 14.881 49.0555 14.881C47.8291 14.881 47.2159 14.6764 47.2159 14.6764C47.0116 14.6764 47.0115 14.4719 47.0115 14.0628V1.38086H41.084V14.0628C41.084 16.7219 42.5148 19.7901 49.0555 19.7901C55.5963 19.7901 57.0271 16.7219 57.0271 14.0628V1.38086H51.0995Z" fill="#EF16B0"/>
<path d="M82.3728 18.153C80.3288 18.5621 78.2849 18.9712 76.4453 18.9712C75.8321 18.9712 75.2189 18.9712 74.6057 18.9712C73.9925 18.9712 73.3793 18.7666 72.7661 18.5621C72.1529 18.3575 71.5397 18.153 70.9265 17.7439C70.3133 17.3348 69.9045 16.9257 69.4957 16.5166C69.0869 15.903 69.0869 15.2893 69.0869 14.6757V7.10742C69.0869 6.08468 69.2913 5.47104 69.9045 4.65285C70.3133 4.03921 71.1309 3.63012 71.9485 3.22102C72.7661 3.01647 73.5837 2.81193 74.1969 2.60738C75.0145 2.40283 75.6277 2.40283 76.4453 2.40283C78.4893 2.40283 80.3288 2.60738 81.964 2.81193V4.65285C81.3508 4.4483 80.5332 4.4483 79.3068 4.24376C78.0805 4.24376 77.2629 4.24376 76.4453 4.24376C73.1749 4.24376 71.5397 5.06195 71.5397 7.10742V14.4711C71.5397 15.0848 71.7441 15.4939 71.9485 15.903C72.3573 16.312 72.7661 16.5166 73.1749 16.7211C73.5837 16.9257 74.1969 17.1302 74.8101 17.1302C75.4233 17.1302 75.8321 17.3348 76.4453 17.3348C77.4673 17.3348 78.6937 17.1302 79.92 16.9257V11.1984H76.2409V9.56199H82.1684V18.153H82.3728Z" fill="#4B4B4B"/>
<path d="M89.1178 18.7672H86.665V2.8125H89.1178V18.7672Z" fill="#4B4B4B"/>
<path d="M104.244 4.44888H95.6588V9.56256H103.426V11.1989H95.6588V18.5626H93.2061V2.8125H104.244V4.44888Z" fill="#4B4B4B"/>
<path d="M119.982 4.44888H114.463V18.7672H112.011V4.44888H106.696V2.8125H119.778V4.44888H119.982Z" fill="#4B4B4B"/>
<path d="M133.472 18.7672H122.639V2.8125H133.268V4.44888H124.888V9.56256H132.45V11.1989H124.888V16.9263H133.472V18.7672Z" fill="#4B4B4B"/>
<path d="M150 7.31254V14.2671C150 17.1308 147.752 18.5626 143.255 18.5626H136.918V2.8125H143.255C147.752 2.8125 150 4.24433 150 7.31254ZM147.547 14.2671V7.31254C147.547 6.6989 147.343 6.2898 147.138 5.88071C146.934 5.47161 146.525 5.26707 146.116 5.06252C145.708 4.85797 145.299 4.65343 144.686 4.65343C144.277 4.65343 143.664 4.44888 143.05 4.44888H139.167V17.1308H143.05C146.116 17.1308 147.547 16.1081 147.547 14.2671Z" fill="#4B4B4B"/>
<path d="M63.1591 6.90368C64.6267 6.90368 65.8163 5.71315 65.8163 4.24456C65.8163 2.77597 64.6267 1.58545 63.1591 1.58545C61.6916 1.58545 60.502 2.77597 60.502 4.24456C60.502 5.71315 61.6916 6.90368 63.1591 6.90368Z" fill="#EF16B0"/>
</svg>
